{
  "last_page": 6,
  "current_page": 1,
  "total": 170,
  "item": [
    {
      "id_page": 8,
      "url": "pages/tabBar/forum/forum",
      "name": "社区",
      "num_visitor": "868",
      "num_visits": "3,203",
      "visit_avg_time": "00:01:27",
      "visitor_avg_time": "00:05:23",
      "entry_num_visits": "1,231",
      "bounce_rate": "2.52%"
    },
    {
      "id_page": 9,
      "url": "pages/forum/detail/detail",
      "name": "社区详情",
      "num_visitor": "293",
      "num_visits": "1,005",
      "visit_avg_time": "00:00:00",
      "visitor_avg_time": "00:00:01",
      "entry_num_visits": "70",
      "bounce_rate": "18.57%"
    },
    {
      "id_page": 11,
      "url": "pages/tabBar/case/case",
      "name": "实例",
      "num_visitor": "550",
      "num_visits": "6,957",
      "visit_avg_time": "00:00:22",
      "visitor_avg_time": "00:04:47",
      "entry_num_visits": "65",
      "bounce_rate": "23.08%"
    },
    {
      "id_page": 126,
      "url": "pages/forum/login/login",
      "name": "登录",
      "num_visitor": "156",
      "num_visits": "375",
      "visit_avg_time": "00:00:00",
      "visitor_avg_time": "00:00:00",
      "entry_num_visits": "25",
      "bounce_rate": "0.00%"
    },
    {
      "id_page": 10,
      "url": "pages/tabBar/center/center",
      "name": "个人中心",
      "num_visitor": "365",
      "num_visits": "1,046",
      "visit_avg_time": "00:01:53",
      "visitor_avg_time": "00:05:24",
      "entry_num_visits": "18",
      "bounce_rate": "50.00%"
    },
    {
      "id_page": 169,
      "url": "pages/forum/search/index",
      "name": "[object Object]",
      "num_visitor": "84",
      "num_visits": "266",
      "visit_avg_time": "00:00:00",
      "visitor_avg_time": "00:00:00",
      "entry_num_visits": "15",
      "bounce_rate": "40.00%"
    },
    {
      "id_page": 74,
      "url": "pages/template/list2detail-list/list2detail-list",
      "name": "列表到详情示例",
      "num_visitor": "53",
      "num_visits": "129",
      "visit_avg_time": "00:00:00",
      "visitor_avg_time": "00:00:00",
      "entry_num_visits": "13",
      "bounce_rate": "0.00%"
    },
    {
      "id_page": 33,
      "url": "pages/component/scroll-view/scroll-view",
      "name": "scroll-view",
      "num_visitor": "62",
      "num_visits": "86",
      "visit_avg_time": "00:00:00",
      "visitor_avg_time": "00:00:00",
      "entry_num_visits": "10",
      "bounce_rate": "40.00%"
    },
    {
      "id_page": 141,
      "url": "pages/API/scan-code/scan-code",
      "name": "扫码",
      "num_visitor": "38",
      "num_visits": "90",
      "visit_avg_time": "00:00:00",
      "visitor_avg_time": "00:00:00",
      "entry_num_visits": "9",
      "bounce_rate": "11.11%"
    },
    {
      "id_page": 25,
      "url": "pages/component/view/view",
      "name": "view",
      "num_visitor": "98",
      "num_visits": "126",
      "visit_avg_time": "00:00:00",
      "visitor_avg_time": "00:00:00",
      "entry_num_visits": "9",
      "bounce_rate": "0.00%"
    },
    {
      "id_page": 60,
      "url": "pages/template/ucharts/ucharts",
      "name": "uCharts 图表",
      "num_visitor": "65",
      "num_visits": "88",
      "visit_avg_time": "00:00:00",
      "visitor_avg_time": "00:00:00",
      "entry_num_visits": "9",
      "bounce_rate": "22.22%"
    },
    {
      "id_page": 78,
      "url": "pages/component/button/button",
      "name": "button",
      "num_visitor": "73",
      "num_visits": "124",
      "visit_avg_time": "00:00:00",
      "visitor_avg_time": "00:00:00",
      "entry_num_visits": "9",
      "bounce_rate": "11.11%"
    },
    {
      "id_page": 123,
      "url": "pages/template/nav-dot/nav-dot",
      "name": "[object Object]",
      "num_visitor": "34",
      "num_visits": "65",
      "visit_avg_time": "00:00:00",
      "visitor_avg_time": "00:00:00",
      "entry_num_visits": "8",
      "bounce_rate": "37.50%"
    },
    {
      "id_page": 144,
      "url": "pages/template/scheme/scheme",
      "name": "打开外部应用",
      "num_visitor": "55",
      "num_visits": "115",
      "visit_avg_time": "00:00:00",
      "visitor_avg_time": "00:00:00",
      "entry_num_visits": "7",
      "bounce_rate": "28.57%"
    },
    {
      "id_page": 2835009,
      "url": "pages/component/ad/index",
      "name": "",
      "num_visitor": "76",
      "num_visits": "215",
      "visit_avg_time": "00:00:00",
      "visitor_avg_time": "00:00:00",
      "entry_num_visits": "7",
      "bounce_rate": "0.00%"
    },
    {
      "id_page": 313,
      "url": "platforms/app-plus/push/push",
      "name": "推送",
      "num_visitor": "38",
      "num_visits": "110",
      "visit_avg_time": "00:00:00",
      "visitor_avg_time": "00:00:01",
      "entry_num_visits": "7",
      "bounce_rate": "0.00%"
    },
    {
      "id_page": 34,
      "url": "pages/component/swiper/swiper",
      "name": "swiper",
      "num_visitor": "43",
      "num_visits": "59",
      "visit_avg_time": "00:00:00",
      "visitor_avg_time": "00:00:00",
      "entry_num_visits": "6",
      "bounce_rate": "66.67%"
    },
    {
      "id_page": 40,
      "url": "pages/about/about",
      "name": "关于",
      "num_visitor": "47",
      "num_visits": "68",
      "visit_avg_time": "00:00:00",
      "visitor_avg_time": "00:00:00",
      "entry_num_visits": "5",
      "bounce_rate": "0.00%"
    },
    {
      "id_page": 315,
      "url": "pages/template/vant-button/vant-button",
      "name": "微信自定义组件示例",
      "num_visitor": "37",
      "num_visits": "44",
      "visit_avg_time": "00:00:00",
      "visitor_avg_time": "00:00:00",
      "entry_num_visits": "5",
      "bounce_rate": "0.00%"
    },
    {
      "id_page": 339,
      "url": "pages/component/web-view-local/web-view-local",
      "name": "button",
      "num_visitor": "33",
      "num_visits": "47",
      "visit_avg_time": "00:00:01",
      "visitor_avg_time": "00:00:01",
      "entry_num_visits": "5",
      "bounce_rate": "20.00%"
    },
    {
      "id_page": 99,
      "url": "pages/template/nav-button/nav-button",
      "name": "导航栏带自定义按钮",
      "num_visitor": "69",
      "num_visits": "133",
      "visit_avg_time": "00:00:00",
      "visitor_avg_time": "00:00:00",
      "entry_num_visits": "5",
      "bounce_rate": "0.00%"
    },
    {
      "id_page": 32,
      "url": "pages/component/picker/picker",
      "name": "picker",
      "num_visitor": "38",
      "num_visits": "52",
      "visit_avg_time": "00:00:05",
      "visitor_avg_time": "00:00:06",
      "entry_num_visits": "5",
      "bounce_rate": "40.00%"
    },
    {
      "id_page": 30,
      "url": "pages/component/web-view/web-view",
      "name": "web-view",
      "num_visitor": "60",
      "num_visits": "125",
      "visit_avg_time": "00:00:00",
      "visitor_avg_time": "00:00:00",
      "entry_num_visits": "4",
      "bounce_rate": "25.00%"
    },
    {
      "id_page": 110,
      "url": "pages/component/textarea/textarea",
      "name": "textarea",
      "num_visitor": "31",
      "num_visits": "34",
      "visit_avg_time": "00:00:00",
      "visitor_avg_time": "00:00:00",
      "entry_num_visits": "4",
      "bounce_rate": "0.00%"
    },
    {
      "id_page": 342,
      "url": "pages/template/nav-image/nav-image",
      "name": "[object Object]",
      "num_visitor": "37",
      "num_visits": "51",
      "visit_avg_time": "00:00:00",
      "visitor_avg_time": "00:00:00",
      "entry_num_visits": "4",
      "bounce_rate": "0.00%"
    },
    {
      "id_page": 16,
      "url": "pages/tabBar/component/component",
      "name": "组件",
      "num_visitor": "4",
      "num_visits": "11",
      "visit_avg_time": "00:00:02",
      "visitor_avg_time": "00:00:07",
      "entry_num_visits": "4",
      "bounce_rate": "0.00%"
    },
    {
      "id_page": 44,
      "url": "pages/API/request/request",
      "name": "网络请求",
      "num_visitor": "22",
      "num_visits": "29",
      "visit_avg_time": "00:00:00",
      "visitor_avg_time": "00:00:00",
      "entry_num_visits": "4",
      "bounce_rate": "50.00%"
    },
    {
      "id_page": 128,
      "url": "pages/API/share/share",
      "name": "分享",
      "num_visitor": "24",
      "num_visits": "77",
      "visit_avg_time": "00:00:00",
      "visitor_avg_time": "00:00:00",
      "entry_num_visits": "4",
      "bounce_rate": "75.00%"
    },
    {
      "id_page": 26,
      "url": "pages/API/set-navigation-bar-title/set-navigation-bar-title",
      "name": "设置界面标题",
      "num_visitor": "63",
      "num_visits": "85",
      "visit_avg_time": "00:00:00",
      "visitor_avg_time": "00:00:00",
      "entry_num_visits": "4",
      "bounce_rate": "0.00%"
    },
    {
      "id_page": 35,
      "url": "pages/component/movable-view/movable-view",
      "name": "movable-view",
      "num_visitor": "30",
      "num_visits": "40",
      "visit_avg_time": "00:00:00",
      "visitor_avg_time": "00:00:00",
      "entry_num_visits": "4",
      "bounce_rate": "50.00%"
    }
  ]
}