 {
   "last_page": 6,
   "current_page": 1,
   "total": 170,
   "item": [
     {
       "id_page": 11,
       "url": "pages/tabBar/case/case",
       "name": "实例",
       "num_visitor": "550",
       "num_visits": "6,957",
       "visit_avg_time": "00:00:38",
       "visitor_avg_time": "00:08:05",
       "exit_num_visits": "485",
       "exit_rate": "6.97%",
       "num_share": "0",
       "hasChildren": true
     },
     {
       "id_page": 8,
       "url": "pages/tabBar/forum/forum",
       "name": "社区",
       "num_visitor": "868", 
       "num_visits": "3,203",
       "visit_avg_time": "00:01:47",
       "visitor_avg_time": "00:06:37",
       "exit_num_visits": "519",
       "exit_rate": "16.20%",
       "num_share": "0",
       "hasChildren": true
     },
     {
       "id_page": 10,
       "url": "pages/tabBar/center/center",
       "name": "个人中心",
       "num_visitor": "365",
       "num_visits": "1,046",
       "visit_avg_time": "00:02:18",
       "visitor_avg_time": "00:06:37",
       "exit_num_visits": "93",
       "exit_rate": "8.89%",
       "num_share": "0",
       "hasChildren": true
     },
     {
       "id_page": 9,
       "url": "pages/forum/detail/detail",
       "name": "社区详情",
       "num_visitor": "293",
       "num_visits": "1,005",
       "visit_avg_time": "00:00:15",
       "visitor_avg_time": "00:00:53",
       "exit_num_visits": "122",
       "exit_rate": "12.14%",
       "num_share": "0",
       "hasChildren": true
     },
     {
       "id_page": 126,
       "url": "pages/forum/login/login",
       "name": "登录",
       "num_visitor": "156",
       "num_visits": "375",
       "visit_avg_time": "00:00:06",
       "visitor_avg_time": "00:00:14",
       "exit_num_visits": "27",
       "exit_rate": "7.20%",
       "num_share": "0",
       "hasChildren": true
     },
     {
       "id_page": 169,
       "url": "pages/forum/search/index",
       "name": "[object Object]",
       "num_visitor": "84",
       "num_visits": "266",
       "visit_avg_time": "00:00:11",
       "visitor_avg_time": "00:00:35",
       "exit_num_visits": "34",
       "exit_rate": "12.78%",
       "num_share": "0",
       "hasChildren": true
     },
     {
       "id_page": 310,
       "url": "pages/API/subnvue/subnvue",
       "name": "SubNvue",
       "num_visitor": "50",
       "num_visits": "241",
       "visit_avg_time": "00:00:12",
       "visitor_avg_time": "00:00:58",
       "exit_num_visits": "6",
       "exit_rate": "2.49%",
       "num_share": "0",
       "hasChildren": true
     },
     {
       "id_page": 2835009,
       "url": "pages/component/ad/index",
       "name": "",
       "num_visitor": "76",
       "num_visits": "215",
       "visit_avg_time": "00:00:01",
       "visitor_avg_time": "00:00:04",
       "exit_num_visits": "9",
       "exit_rate": "4.19%",
       "num_share": "0",
       "hasChildren": true
     },
     {
       "id_page": 21,
       "url": "pages/template/tabbar/tabbar",
       "name": "可拖动顶部选项卡",
       "num_visitor": "66",
       "num_visits": "143",
       "visit_avg_time": "00:00:30",
       "visitor_avg_time": "00:01:06",
       "exit_num_visits": "5",
       "exit_rate": "3.50%",
       "num_share": "0",
       "hasChildren": true
     },
     {
       "id_page": 99,
       "url": "pages/template/nav-button/nav-button",
       "name": "导航栏带自定义按钮",
       "num_visitor": "69",
       "num_visits": "133",
       "visit_avg_time": "00:00:04",
       "visitor_avg_time": "00:00:09",
       "exit_num_visits": "5",
       "exit_rate": "3.76%",
       "num_share": "0",
       "hasChildren": true
     },
     {
       "id_page": 74,
       "url": "pages/template/list2detail-list/list2detail-list",
       "name": "列表到详情示例",
       "num_visitor": "53",
       "num_visits": "129",
       "visit_avg_time": "00:00:07",
       "visitor_avg_time": "00:00:19",
       "exit_num_visits": "3",
       "exit_rate": "2.33%",
       "num_share": "0",
       "hasChildren": true
     },
     {
       "id_page": 25,
       "url": "pages/component/view/view",
       "name": "view",
       "num_visitor": "98",
       "num_visits": "126",
       "visit_avg_time": "00:00:10",
       "visitor_avg_time": "00:00:13",
       "exit_num_visits": "3",
       "exit_rate": "2.38%",
       "num_share": "0",
       "hasChildren": true
     },
     {
       "id_page": 27,
       "url": "pages/component/navigator/navigator",
       "name": "navigator",
       "num_visitor": "67",
       "num_visits": "125",
       "visit_avg_time": "00:00:01",
       "visitor_avg_time": "00:00:02",
       "exit_num_visits": "2",
       "exit_rate": "1.60%",
       "num_share": "0",
       "hasChildren": true
     },
     {
       "id_page": 30,
       "url": "pages/component/web-view/web-view",
       "name": "web-view",
       "num_visitor": "60",
       "num_visits": "125",
       "visit_avg_time": "00:00:03",
       "visitor_avg_time": "00:00:08",
       "exit_num_visits": "6",
       "exit_rate": "4.80%",
       "num_share": "0",
       "hasChildren": true
     },
     {
       "id_page": 78,
       "url": "pages/component/button/button",
       "name": "button",
       "num_visitor": "73",
       "num_visits": "124",
       "visit_avg_time": "00:00:06",
       "visitor_avg_time": "00:00:11",
       "exit_num_visits": "10",
       "exit_rate": "8.06%",
       "num_share": "0",
       "hasChildren": true
     },
     {
       "id_page": 144,
       "url": "pages/template/scheme/scheme",
       "name": "打开外部应用",
       "num_visitor": "55",
       "num_visits": "115",
       "visit_avg_time": "00:00:06",
       "visitor_avg_time": "00:00:13",
       "exit_num_visits": "16",
       "exit_rate": "13.91%",
       "num_share": "0",
       "hasChildren": true
     },
     {
       "id_page": 313,
       "url": "platforms/app-plus/push/push",
       "name": "推送",
       "num_visitor": "38",
       "num_visits": "110",
       "visit_avg_time": "00:00:05",
       "visitor_avg_time": "00:00:15",
       "exit_num_visits": "4",
       "exit_rate": "3.64%",
       "num_share": "0",
       "hasChildren": true
     },
     {
       "id_page": 129,
       "url": "pages/API/login/login",
       "name": "授权登录",
       "num_visitor": "44",
       "num_visits": "109",
       "visit_avg_time": "00:00:03",
       "visitor_avg_time": "00:00:08",
       "exit_num_visits": "5",
       "exit_rate": "4.59%",
       "num_share": "0",
       "hasChildren": true
     },
     {
       "id_page": 135,
       "url": "pages/API/request-payment/request-payment",
       "name": "发起支付",
       "num_visitor": "43",
       "num_visits": "101",
       "visit_avg_time": "00:00:04",
       "visitor_avg_time": "00:00:10",
       "exit_num_visits": "5",
       "exit_rate": "4.95%",
       "num_share": "0",
       "hasChildren": true
     },
     {
       "id_page": 141,
       "url": "pages/API/scan-code/scan-code",
       "name": "扫码",
       "num_visitor": "38",
       "num_visits": "90",
       "visit_avg_time": "00:00:20",
       "visitor_avg_time": "00:00:48",
       "exit_num_visits": "13",
       "exit_rate": "14.44%",
       "num_share": "0",
       "hasChildren": true
     },
     {
       "id_page": 42,
       "url": "pages/API/navigator/navigator",
       "name": "页面跳转",
       "num_visitor": "27",
       "num_visits": "89",
       "visit_avg_time": "00:00:02",
       "visitor_avg_time": "00:00:07",
       "exit_num_visits": "1",
       "exit_rate": "1.12%",
       "num_share": "0",
       "hasChildren": true
     },
     {
       "id_page": 57,
       "url": "pages/extUI/list/list",
       "name": "List 列表",
       "num_visitor": "36",
       "num_visits": "88",
       "visit_avg_time": "00:03:21",
       "visitor_avg_time": "00:08:11",
       "exit_num_visits": "8",
       "exit_rate": "9.09%",
       "num_share": "0",
       "hasChildren": true
     },
     {
       "id_page": 60,
       "url": "pages/template/ucharts/ucharts",
       "name": "uCharts 图表",
       "num_visitor": "65",
       "num_visits": "88",
       "visit_avg_time": "00:00:19",
       "visitor_avg_time": "00:00:26",
       "exit_num_visits": "12",
       "exit_rate": "13.64%",
       "num_share": "0",
       "hasChildren": true
     },
     {
       "id_page": 33,
       "url": "pages/component/scroll-view/scroll-view",
       "name": "scroll-view",
       "num_visitor": "62",
       "num_visits": "86",
       "visit_avg_time": "00:00:11",
       "visitor_avg_time": "00:00:16",
       "exit_num_visits": "11",
       "exit_rate": "12.79%",
       "num_share": "0",
       "hasChildren": true
     },
     {
       "id_page": 26,
       "url": "pages/API/set-navigation-bar-title/set-navigation-bar-title",
       "name": "设置界面标题",
       "num_visitor": "63",
       "num_visits": "85",
       "visit_avg_time": "00:00:06",
       "visitor_avg_time": "00:00:08",
       "exit_num_visits": "1",
       "exit_rate": "1.18%",
       "num_share": "0",
       "hasChildren": true
     },
     {
       "id_page": 3084839,
       "url": "pages/template/swiper-list-nvue/swiper-list-nvue",
       "name": "",
       "num_visitor": "48",
       "num_visits": "80",
       "visit_avg_time": "00:01:11",
       "visitor_avg_time": "00:01:58",
       "exit_num_visits": "6",
       "exit_rate": "7.50%",
       "num_share": "0",
       "hasChildren": true
     },
     {
       "id_page": 128,
       "url": "pages/API/share/share",
       "name": "分享",
       "num_visitor": "24",
       "num_visits": "77",
       "visit_avg_time": "00:00:06",
       "visitor_avg_time": "00:00:22",
       "exit_num_visits": "8",
       "exit_rate": "10.39%",
       "num_share": "0",
       "hasChildren": true
     },
     {
       "id_page": 360577,
       "url": "pages/template/component-communication/component-communication",
       "name": "组件通讯",
       "num_visitor": "52",
       "num_visits": "71",
       "visit_avg_time": "00:00:03",
       "visitor_avg_time": "00:00:04",
       "exit_num_visits": "1",
       "exit_rate": "1.41%",
       "num_share": "0",
       "hasChildren": true
     },
     {
       "id_page": 361612,
       "url": "pages/API/navigator/new-page/new-vue-page-1",
       "name": "新VUE页面1",
       "num_visitor": "18",
       "num_visits": "71",
       "visit_avg_time": "00:00:01",
       "visitor_avg_time": "00:00:06",
       "exit_num_visits": "0",
       "exit_rate": "0.00%",
       "num_share": "0",
       "hasChildren": true
     },
     {
       "id_page": 314,
       "url": "platforms/app-plus/feedback/feedback",
       "name": "问题反馈",
       "num_visitor": "39",
       "num_visits": "69",
       "visit_avg_time": "00:00:10",
       "visitor_avg_time": "00:00:18",
       "exit_num_visits": "7",
       "exit_rate": "10.14%",
       "num_share": "0",
       "hasChildren": true
     }
   ]
 }